0,4,0
0.004,3.99898,0.0159959
0.008,3.99591,0.0319673
0.012,3.99081,0.0478897
0.016,3.98372,0.0637396
0.02,3.97468,0.0794935
0.024,3.96373,0.0951295
0.028,3.95094,0.110626
0.032,3.93637,0.125964
0.036,3.92011,0.141124
0.04,3.90223,0.156089
0.044,3.88283,0.170845
0.048,3.862,0.185376
0.052,3.83984,0.199672
0.056,3.81644,0.21372
0.06,3.79189,0.227514
0.064,3.76631,0.241044
0.068,3.73979,0.254305
0.072,3.71241,0.267294
0.076,3.68428,0.280006
0.08,3.65549,0.292439
0.084,3.62612,0.304594
0.088,3.59625,0.31647
0.092,3.56597,0.328069
0.096,3.53534,0.339392
0.1,3.50444,0.350444
0.104,3.47333,0.361226
0.108,3.44207,0.371744
0.112,3.41073,0.382001
0.116,3.37934,0.392004
0.12,3.34797,0.401756
0.124,3.31665,0.411264
0.128,3.28542,0.420534
0.132,3.25432,0.429571
0.136,3.22339,0.438381
0.14,3.19265,0.446971
0.144,3.16213,0.455347
0.148,3.13185,0.463514
0.152,3.10184,0.47148
0.156,3.07211,0.47925
0.16,3.04268,0.486829
0.164,3.01357,0.494225
0.168,2.98477,0.501442
0.172,2.95632,0.508487
0.176,2.92821,0.515364
0.18,2.90044,0.52208
0.184,2.87304,0.52864
0.188,2.846,0.535048
0.192,2.81932,0.54131
0.196,2.79301,0.54743
0.2,2.76707,0.553414
0.204,2.7415,0.559265
0.208,2.71629,0.564989
0.212,2.69146,0.570589
0.216,2.66699,0.57607
0.22,2.64289,0.581435
0.224,2.61914,0.586688
0.228,2.59576,0.591834
0.232,2.57274,0.596875
0.236,2.55006,0.601815
0.24,2.52774,0.606657
0.244,2.50576,0.611405
0.248,2.48412,0.616061
0.252,2.46282,0.620629
0.256,2.44184,0.625112
0.26,2.4212,0.629511
0.264,2.40087,0.63383
0.268,2.38087,0.638072
0.272,2.36117,0.642238
0.276,2.34178,0.646332
0.28,2.3227,0.650355
0.284,2.30391,0.654309
0.288,2.28541,0.658198
0.292,2.2672,0.662022
0.296,2.24927,0.665784
0.3,2.23162,0.669485
0.304,2.21424,0.673128
0.308,2.19712,0.676714
0.312,2.18027,0.680245
0.316,2.16368,0.683722
0.32,2.14734,0.687148
0.324,2.13124,0.690523
0.328,2.11539,0.693849
0.332,2.09978,0.697128
0.336,2.08441,0.70036
0.34,2.06926,0.703548
0.344,2.05434,0.706692
0.348,2.03964,0.709793
0.352,2.02515,0.712854
0.356,2.01088,0.715874
0.36,1.99682,0.718855
0.364,1.98296,0.721799
0.368,1.96931,0.724705
0.372,1.95585,0.727576
0.376,1.94258,0.730412
0.38,1.92951,0.733214
0.384,1.91662,0.735982
0.388,1.90391,0.738719
0.392,1.89139,0.741424
0.396,1.87904,0.744098
0.4,1.86686,0.746743
0.404,1.85485,0.749358
0.408,1.843,0.751945
0.412,1.83132,0.754505
0.416,1.8198,0.757038
0.42,1.80844,0.759544
0.424,1.79723,0.762025
0.428,1.78617,0.764481
0.432,1.77526,0.766912
0.436,1.76449,0.76932
0.44,1.75387,0.771704
0.444,1.74339,0.774066
0.448,1.73305,0.776405
0.452,1.72284,0.778723
0.456,1.71276,0.78102
0.46,1.70282,0.783296
0.464,1.693,0.785552
0.468,1.68331,0.787788
0.472,1.67374,0.790005
0.476,1.66429,0.792204
0.48,1.65497,0.794384
0.484,1.64575,0.796545
0.488,1.63666,0.79869
0.492,1.62768,0.800817
0.496,1.6188,0.802927
0.5,1.61004,0.805021
0.504,1.60139,0.807098
0.508,1.59283,0.80916
0.512,1.58439,0.811206
0.516,1.57604,0.813238
0.52,1.5678,0.815254
0.524,1.55965,0.817256
0.528,1.5516,0.819244
0.532,1.54364,0.821218
0.536,1.53578,0.823179
0.54,1.52801,0.825126
0.544,1.52033,0.82706
0.548,1.51274,0.828981
0.552,1.50523,0.830889
0.556,1.49782,0.832786
0.56,1.49048,0.83467
0.564,1.48323,0.836542
0.568,1.47606,0.838403
0.572,1.46897,0.840253
0.576,1.46196,0.842091
0.58,1.45503,0.843919
0.584,1.44818,0.845735
0.588,1.4414,0.847542
0.592,1.43469,0.849338
0.596,1.42806,0.851123
0.6,1.4215,0.852899
0.604,1.41501,0.854665
0.608,1.40859,0.856422
0.612,1.40224,0.858169
0.616,1.39595,0.859907
0.62,1.38974,0.861636
0.624,1.38358,0.863356
0.628,1.3775,0.865067
0.632,1.37147,0.86677
0.636,1.36551,0.868464
0.64,1.35961,0.87015
0.644,1.35377,0.871828
0.648,1.34799,0.873497
0.652,1.34227,0.875159
0.656,1.33661,0.876814
0.66,1.331,0.87846
0.664,1.32545,0.880099
0.668,1.31996,0.881731
0.672,1.31452,0.883356
0.676,1.30913,0.884973
0.68,1.3038,0.886584
0.684,1.29852,0.888188
0.688,1.29329,0.889785
0.692,1.28811,0.891375
0.696,1.28299,0.892959
0.7,1.27791,0.894536
0.704,1.27288,0.896107
0.708,1.2679,0.897672
0.712,1.26297,0.899231
0.716,1.25808,0.900784
0.72,1.25324,0.902331
0.724,1.24844,0.903872
0.728,1.24369,0.905407
0.732,1.23898,0.906937
0.736,1.23432,0.908461
0.74,1.2297,0.909979
0.744,1.22512,0.911493
0.748,1.22059,0.913001
0.752,1.21609,0.914503
0.756,1.21164,0.916001
0.76,1.20723,0.917493
0.764,1.20285,0.918981
0.768,1.19852,0.920463
0.772,1.19422,0.921941
0.776,1.18997,0.923414
0.78,1.18575,0.924883
0.784,1.18156,0.926346
0.788,1.17742,0.927805
0.792,1.17331,0.92926
0.796,1.16923,0.93071
0.8,1.16519,0.932156
0.804,1.16119,0.933597
0.808,1.15722,0.935035
0.812,1.15329,0.936468
0.816,1.14938,0.937897
0.82,1.14551,0.939321
0.824,1.14168,0.940742
0.828,1.13787,0.942159
0.832,1.1341,0.943572
0.836,1.13036,0.944981
0.84,1.12665,0.946387
0.844,1.12297,0.947788
0.848,1.11932,0.949186
0.852,1.11571,0.950581
0.856,1.11212,0.951971
0.86,1.10856,0.953359
0.864,1.10503,0.954742
0.868,1.10152,0.956123
0.872,1.09805,0.957499
0.876,1.0946,0.958873
0.88,1.09119,0.960243
0.884,1.08779,0.96161
0.888,1.08443,0.962974
0.892,1.08109,0.964334
0.896,1.07778,0.965692
0.9,1.0745,0.967046
0.904,1.07124,0.968397
0.908,1.068,0.969745
0.912,1.06479,0.97109
0.916,1.06161,0.972433
0.92,1.05845,0.973772
0.924,1.05531,0.975108
0.928,1.0522,0.976442
0.932,1.04911,0.977773
0.936,1.04605,0.979101
0.94,1.04301,0.980426
0.944,1.03999,0.981749
0.948,1.03699,0.983069
0.952,1.03402,0.984386
0.956,1.03107,0.985701
0.96,1.02814,0.987013
0.964,1.02523,0.988323
0.968,1.02234,0.98963
0.972,1.01948,0.990934
0.976,1.01664,0.992237
0.98,1.01381,0.993536
0.984,1.01101,0.994834
0.988,1.00823,0.996129
0.992,1.00547,0.997421
0.996,1.00272,0.998712
1,1,1
1.004,0.997297,1.00129
1.008,0.994613,1.00257
1.012,0.991948,1.00385
1.016,0.989301,1.00513
1.02,0.986674,1.00641
1.024,0.984065,1.00768
1.028,0.981474,1.00896
1.032,0.978901,1.01023
1.036,0.976346,1.01149
1.04,0.973809,1.01276
1.044,0.971289,1.01403
1.048,0.968787,1.01529
1.052,0.966302,1.01655
1.056,0.963834,1.01781
1.06,0.961382,1.01907
1.064,0.958948,1.02032
1.068,0.95653,1.02157
1.072,0.954128,1.02282
1.076,0.951742,1.02407
1.08,0.949372,1.02532
1.084,0.947018,1.02657
1.088,0.94468,1.02781
1.092,0.942357,1.02905
1.096,0.94005,1.03029
1.1,0.937758,1.03153
1.104,0.935481,1.03277
1.108,0.933218,1.03401
1.112,0.930971,1.03524
1.116,0.928738,1.03647
1.12,0.92652,1.0377
1.124,0.924316,1.03893
1.128,0.922126,1.04016
1.132,0.919951,1.04138
1.136,0.917789,1.04261
1.14,0.915641,1.04383
1.144,0.913507,1.04505
1.148,0.911386,1.04627
1.152,0.909279,1.04749
1.156,0.907185,1.04871
1.16,0.905104,1.04992
1.164,0.903037,1.05113
1.168,0.900982,1.05235
1.172,0.89894,1.05356
1.176,0.896911,1.05477
1.18,0.894894,1.05597
1.184,0.89289,1.05718
1.188,0.890898,1.05839
1.192,0.888918,1.05959
1.196,0.88695,1.06079
1.2,0.884995,1.06199
1.204,0.883051,1.06319
1.208,0.881119,1.06439
1.212,0.879199,1.06559
1.216,0.87729,1.06679
1.22,0.875393,1.06798
1.224,0.873508,1.06917
1.228,0.871633,1.07037
1.232,0.86977,1.07156
1.236,0.867918,1.07275
1.24,0.866076,1.07393
1.244,0.864246,1.07512
1.248,0.862426,1.07631
1.252,0.860617,1.07749
1.256,0.858819,1.07868
1.26,0.857031,1.07986
1.264,0.855254,1.08104
1.268,0.853487,1.08222
1.272,0.85173,1.0834
1.276,0.849983,1.08458
1.28,0.848247,1.08576
1.284,0.84652,1.08693
1.288,0.844803,1.08811
1.292,0.843096,1.08928
1.296,0.841399,1.09045
1.3,0.839711,1.09162
1.304,0.838033,1.0928
1.308,0.836365,1.09396
1.312,0.834705,1.09513
1.316,0.833055,1.0963
1.32,0.831415,1.09747
1.324,0.829783,1.09863
1.328,0.828161,1.0998
1.332,0.826547,1.10096
1.336,0.824943,1.10212
1.34,0.823347,1.10329
1.344,0.821761,1.10445
1.348,0.820182,1.10561
1.352,0.818613,1.10676
1.356,0.817052,1.10792
1.36,0.8155,1.10908
1.364,0.813956,1.11024
1.368,0.81242,1.11139
1.372,0.810893,1.11255
1.376,0.809374,1.1137
1.38,0.807863,1.11485
1.384,0.80636,1.116
1.388,0.804866,1.11715
1.392,0.803379,1.1183
1.396,0.8019,1.11945
1.4,0.800429,1.1206
1.404,0.798966,1.12175
1.408,0.79751,1.12289
1.412,0.796063,1.12404
1.416,0.794622,1.12519
1.42,0.79319,1.12633
1.424,0.791765,1.12747
1.428,0.790347,1.12862
1.432,0.788937,1.12976
1.436,0.787533,1.1309
1.44,0.786138,1.13204
1.444,0.784749,1.13318
1.448,0.783368,1.13432
1.452,0.781993,1.13545
1.456,0.780626,1.13659
1.46,0.779266,1.13773
1.464,0.777912,1.13886
1.468,0.776566,1.14
1.472,0.775226,1.14113
1.476,0.773893,1.14227
1.48,0.772567,1.1434
1.484,0.771247,1.14453
1.488,0.769934,1.14566
1.492,0.768628,1.14679
1.496,0.767328,1.14792
1.5,0.766035,1.14905
1.504,0.764748,1.15018
1.508,0.763467,1.15131
1.512,0.762193,1.15244
1.516,0.760925,1.15356
1.52,0.759663,1.15469
1.524,0.758408,1.15581
1.528,0.757158,1.15694
1.532,0.755915,1.15806
1.536,0.754678,1.15919
1.54,0.753447,1.16031
1.544,0.752221,1.16143
1.548,0.751002,1.16255
1.552,0.749789,1.16367
1.556,0.748581,1.16479
1.56,0.747379,1.16591
1.564,0.746183,1.16703
1.568,0.744993,1.16815
1.572,0.743808,1.16927
1.576,0.74263,1.17038
1.58,0.741456,1.1715
1.584,0.740288,1.17262
1.588,0.739126,1.17373
1.592,0.737969,1.17485
1.596,0.736818,1.17596
1.6,0.735672,1.17707
1.604,0.734531,1.17819
1.608,0.733396,1.1793
1.612,0.732266,1.18041
1.616,0.731141,1.18152
1.62,0.730022,1.18264
1.624,0.728907,1.18375
1.628,0.727798,1.18486
1.632,0.726694,1.18596
1.636,0.725595,1.18707
1.64,0.724501,1.18818
1.644,0.723412,1.18929
1.648,0.722328,1.1904
1.652,0.721249,1.1915
1.656,0.720175,1.19261
1.66,0.719106,1.19372
1.664,0.718041,1.19482
1.668,0.716981,1.19593
1.672,0.715927,1.19703
1.676,0.714876,1.19813
1.68,0.713831,1.19924
1.684,0.71279,1.20034
1.688,0.711754,1.20144
1.692,0.710723,1.20254
1.696,0.709696,1.20364
1.7,0.708673,1.20474
1.704,0.707656,1.20585
1.708,0.706642,1.20695
1.712,0.705633,1.20804
1.716,0.704629,1.20914
1.72,0.703629,1.21024
1.724,0.702633,1.21134
1.728,0.701642,1.21244
1.732,0.700655,1.21353
1.736,0.699672,1.21463
1.74,0.698694,1.21573
1.744,0.69772,1.21682
1.748,0.69675,1.21792
1.752,0.695784,1.21901
1.756,0.694822,1.22011
1.76,0.693865,1.2212
1.764,0.692912,1.2223
1.768,0.691962,1.22339
1.772,0.691017,1.22448
1.776,0.690076,1.22557
1.78,0.689138,1.22667
1.784,0.688205,1.22776
1.788,0.687276,1.22885
1.792,0.68635,1.22994
1.796,0.685429,1.23103
1.8,0.684511,1.23212
1.804,0.683597,1.23321
1.808,0.682687,1.2343
1.812,0.681781,1.23539
1.816,0.680879,1.23648
1.82,0.67998,1.23756
1.824,0.679085,1.23865
1.828,0.678194,1.23974
1.832,0.677307,1.24083
1.836,0.676423,1.24191
1.84,0.675543,1.243
1.844,0.674666,1.24408
1.848,0.673793,1.24517
1.852,0.672924,1.24625
1.856,0.672058,1.24734
1.86,0.671195,1.24842
1.864,0.670337,1.24951
1.868,0.669481,1.25059
1.872,0.668629,1.25167
1.876,0.667781,1.25276
1.88,0.666936,1.25384
1.884,0.666094,1.25492
1.888,0.665256,1.256
1.892,0.664421,1.25708
1.896,0.66359,1.25817
1.9,0.662761,1.25925
1.904,0.661937,1.26033
1.908,0.661115,1.26141
1.912,0.660297,1.26249
1.916,0.659481,1.26357
1.92,0.65867,1.26465
1.924,0.657861,1.26572
1.928,0.657055,1.2668
1.932,0.656253,1.26788
1.936,0.655454,1.26896
1.94,0.654658,1.27004
1.944,0.653865,1.27111
1.948,0.653075,1.27219
1.952,0.652288,1.27327
1.956,0.651505,1.27434
1.96,0.650724,1.27542
1.964,0.649946,1.27649
1.968,0.649172,1.27757
1.972,0.6484,1.27865
1.976,0.647631,1.27972
1.98,0.646866,1.28079
1.984,0.646103,1.28187
1.988,0.645343,1.28294
1.992,0.644586,1.28402
1.996,0.643832,1.28509
2,0.643081,1.28616
2.004,0.642333,1.28723
2.008,0.641587,1.28831
2.012,0.640844,1.28938
2.016,0.640104,1.29045
2.02,0.639367,1.29152
2.024,0.638633,1.29259
2.028,0.637902,1.29366
2.032,0.637173,1.29473
2.036,0.636447,1.29581
2.04,0.635723,1.29688
2.044,0.635003,1.29795
2.048,0.634285,1.29901
2.052,0.633569,1.30008
2.056,0.632857,1.30115
2.06,0.632147,1.30222
2.064,0.631439,1.30329
2.068,0.630734,1.30436
2.072,0.630032,1.30543
2.076,0.629333,1.30649
2.08,0.628636,1.30756
2.084,0.627941,1.30863
2.088,0.627249,1.3097
2.092,0.62656,1.31076
2.096,0.625873,1.31183
2.1,0.625188,1.3129
2.104,0.624506,1.31396
2.108,0.623827,1.31503
2.112,0.62315,1.31609
2.116,0.622475,1.31716
2.12,0.621803,1.31822
2.124,0.621133,1.31929
2.128,0.620466,1.32035
2.132,0.619801,1.32142
2.136,0.619138,1.32248
2.14,0.618478,1.32354
2.144,0.61782,1.32461
2.148,0.617165,1.32567
2.152,0.616512,1.32673
2.156,0.615861,1.3278
2.16,0.615212,1.32886
2.164,0.614566,1.32992
2.168,0.613922,1.33098
2.172,0.61328,1.33204
2.176,0.612641,1.33311
2.18,0.612004,1.33417
2.184,0.611369,1.33523
2.188,0.610736,1.33629
2.192,0.610105,1.33735
2.196,0.609477,1.33841
2.2,0.608851,1.33947
2.204,0.608227,1.34053
2.208,0.607605,1.34159
2.212,0.606985,1.34265
2.216,0.606368,1.34371
2.22,0.605752,1.34477
2.224,0.605139,1.34583
2.228,0.604528,1.34689
2.232,0.603919,1.34795
2.236,0.603312,1.34901
2.24,0.602707,1.35006
2.244,0.602104,1.35112
2.248,0.601503,1.35218
2.252,0.600904,1.35324
2.256,0.600308,1.35429
2.26,0.599713,1.35535
2.264,0.59912,1.35641
2.268,0.598529,1.35746
2.272,0.597941,1.35852
2.276,0.597354,1.35958
2.28,0.596769,1.36063
2.284,0.596186,1.36169
2.288,0.595606,1.36275
2.292,0.595027,1.3638
2.296,0.59445,1.36486
2.3,0.593875,1.36591
2.304,0.593302,1.36697
2.308,0.59273,1.36802
2.312,0.592161,1.36908
2.316,0.591594,1.37013
2.32,0.591028,1.37118
2.324,0.590464,1.37224
2.328,0.589902,1.37329
2.332,0.589342,1.37435
2.336,0.588784,1.3754
2.34,0.588228,1.37645
2.344,0.587673,1.37751
2.348,0.587121,1.37856
2.352,0.58657,1.37961
2.356,0.586021,1.38067
2.36,0.585474,1.38172
2.364,0.584928,1.38277
2.368,0.584384,1.38382
2.372,0.583842,1.38487
2.376,0.583302,1.38593
2.38,0.582763,1.38698
2.384,0.582227,1.38803
2.388,0.581692,1.38908
2.392,0.581158,1.39013
2.396,0.580627,1.39118
2.4,0.580097,1.39223
2.404,0.579569,1.39328
2.408,0.579042,1.39433
2.412,0.578517,1.39538
2.416,0.577994,1.39643
2.42,0.577472,1.39748
2.424,0.576953,1.39853
2.428,0.576434,1.39958
2.432,0.575918,1.40063
2.436,0.575403,1.40168
2.44,0.574889,1.40273
2.444,0.574378,1.40378
2.448,0.573868,1.40483
2.452,0.573359,1.40588
2.456,0.572852,1.40692
2.46,0.572347,1.40797
2.464,0.571843,1.40902
2.468,0.571341,1.41007
2.472,0.57084,1.41112
2.476,0.570341,1.41216
2.48,0.569844,1.41321
2.484,0.569348,1.41426
2.488,0.568853,1.41531
2.492,0.56836,1.41635
2.496,0.567869,1.4174
2.5,0.567379,1.41845
2.504,0.566891,1.41949
2.508,0.566404,1.42054
2.512,0.565918,1.42159
2.516,0.565434,1.42263
2.52,0.564952,1.42368
2.524,0.564471,1.42472
2.528,0.563991,1.42577
2.532,0.563513,1.42682
2.536,0.563037,1.42786
2.54,0.562562,1.42891
2.544,0.562088,1.42995
2.548,0.561616,1.431
2.552,0.561145,1.43204
2.556,0.560675,1.43309
2.56,0.560207,1.43413
2.564,0.559741,1.43518
2.568,0.559276,1.43622
2.572,0.558812,1.43726
2.576,0.558349,1.43831
2.58,0.557888,1.43935
2.584,0.557429,1.4404
2.588,0.55697,1.44144
2.592,0.556513,1.44248
2.596,0.556058,1.44353
2.6,0.555604,1.44457
2.604,0.555151,1.44561
2.608,0.554699,1.44666
2.612,0.554249,1.4477
2.616,0.5538,1.44874
2.62,0.553352,1.44978
2.624,0.552906,1.45083
2.628,0.552461,1.45187
2.632,0.552018,1.45291
2.636,0.551575,1.45395
2.64,0.551134,1.45499
2.644,0.550694,1.45604
2.648,0.550256,1.45708
2.652,0.549819,1.45812
2.656,0.549383,1.45916
2.66,0.548948,1.4602
2.664,0.548515,1.46124
2.668,0.548083,1.46228
2.672,0.547652,1.46333
2.676,0.547222,1.46437
2.68,0.546794,1.46541
2.684,0.546366,1.46645
2.688,0.54594,1.46749
2.692,0.545516,1.46853
2.696,0.545092,1.46957
2.7,0.54467,1.47061
2.704,0.544249,1.47165
2.708,0.543829,1.47269
2.712,0.54341,1.47373
2.716,0.542992,1.47477
2.72,0.542576,1.47581
2.724,0.542161,1.47685
2.728,0.541747,1.47789
2.732,0.541334,1.47892
2.736,0.540922,1.47996
2.74,0.540512,1.481
2.744,0.540103,1.48204
2.748,0.539694,1.48308
2.752,0.539287,1.48412
2.756,0.538882,1.48516
2.76,0.538477,1.4862
2.764,0.538073,1.48723
2.768,0.537671,1.48827
2.772,0.537269,1.48931
2.776,0.536869,1.49035
2.78,0.53647,1.49139
2.784,0.536072,1.49242
2.788,0.535675,1.49346
2.792,0.535279,1.4945
2.796,0.534884,1.49554
2.8,0.534491,1.49657
2.804,0.534098,1.49761
2.808,0.533706,1.49865
2.812,0.533316,1.49968
2.816,0.532927,1.50072
2.82,0.532538,1.50176
2.824,0.532151,1.50279
2.828,0.531765,1.50383
2.832,0.53138,1.50487
2.836,0.530996,1.5059
2.84,0.530613,1.50694
2.844,0.530231,1.50798
2.848,0.52985,1.50901
2.852,0.52947,1.51005
2.856,0.529091,1.51108
2.86,0.528713,1.51212
2.864,0.528337,1.51316
2.868,0.527961,1.51419
2.872,0.527586,1.51523
2.876,0.527212,1.51626
2.88,0.526839,1.5173
2.884,0.526468,1.51833
2.888,0.526097,1.51937
2.892,0.525727,1.5204
2.896,0.525358,1.52144
2.9,0.52499,1.52247
2.904,0.524624,1.52351
2.908,0.524258,1.52454
2.912,0.523893,1.52558
2.916,0.523529,1.52661
2.92,0.523166,1.52764
2.924,0.522804,1.52868
2.928,0.522443,1.52971
2.932,0.522083,1.53075
2.936,0.521724,1.53178
2.94,0.521365,1.53281
2.944,0.521008,1.53385
2.948,0.520652,1.53488
2.952,0.520297,1.53592
2.956,0.519942,1.53695
2.96,0.519589,1.53798
2.964,0.519236,1.53902
2.968,0.518884,1.54005
2.972,0.518534,1.54108
2.976,0.518184,1.54211
2.98,0.517835,1.54315
2.984,0.517487,1.54418
2.988,0.51714,1.54521
2.992,0.516793,1.54625
2.996,0.516448,1.54728
3,0.516104,1.54831
3.004,0.51576,1.54934
3.008,0.515417,1.55038
3.012,0.515076,1.55141
3.016,0.514735,1.55244
3.02,0.514395,1.55347
3.024,0.514056,1.5545
3.028,0.513717,1.55554
3.032,0.51338,1.55657
3.036,0.513043,1.5576
3.04,0.512708,1.55863
3.044,0.512373,1.55966
3.048,0.512039,1.56069
3.052,0.511706,1.56173
3.056,0.511373,1.56276
3.06,0.511042,1.56379
3.064,0.510711,1.56482
3.068,0.510381,1.56585
3.072,0.510052,1.56688
3.076,0.509724,1.56791
3.08,0.509397,1.56894
3.084,0.509071,1.56997
3.088,0.508745,1.571
3.092,0.50842,1.57203
3.096,0.508096,1.57307
3.1,0.507773,1.5741
3.104,0.50745,1.57513
3.108,0.507129,1.57616
3.112,0.506808,1.57719
3.116,0.506488,1.57822
3.12,0.506169,1.57925
3.124,0.50585,1.58028
3.128,0.505533,1.58131
3.132,0.505216,1.58234
3.136,0.5049,1.58337
3.14,0.504585,1.5844
3.144,0.50427,1.58543
3.148,0.503956,1.58645
3.152,0.503643,1.58748
3.156,0.503331,1.58851
3.16,0.50302,1.58954
3.164,0.502709,1.59057
3.168,0.502399,1.5916
3.172,0.50209,1.59263
3.176,0.501782,1.59366
3.18,0.501474,1.59469
3.184,0.501167,1.59572
3.188,0.500861,1.59675
3.192,0.500556,1.59777
3.196,0.500251,1.5988
3.2,0.499947,1.59983
3.204,0.499644,1.60086
3.208,0.499342,1.60189
3.212,0.49904,1.60292
3.216,0.498739,1.60395
3.22,0.498439,1.60497
3.224,0.498139,1.606
3.228,0.497841,1.60703
3.232,0.497543,1.60806
3.236,0.497245,1.60909
3.24,0.496949,1.61011
3.244,0.496653,1.61114
3.248,0.496357,1.61217
3.252,0.496063,1.6132
3.256,0.495769,1.61422
3.26,0.495476,1.61525
3.264,0.495184,1.61628
3.268,0.494892,1.61731
3.272,0.494601,1.61833
3.276,0.49431,1.61936
3.28,0.494021,1.62039
3.284,0.493732,1.62142
3.288,0.493444,1.62244
3.292,0.493156,1.62347
3.296,0.492869,1.6245
3.3,0.492583,1.62552
3.304,0.492297,1.62655
3.308,0.492012,1.62758
3.312,0.491728,1.6286
3.316,0.491444,1.62963
3.32,0.491162,1.63066
3.324,0.490879,1.63168
3.328,0.490598,1.63271
3.332,0.490317,1.63374
3.336,0.490037,1.63476
3.34,0.489757,1.63579
3.344,0.489478,1.63681
3.348,0.4892,1.63784
3.352,0.488922,1.63887
3.356,0.488645,1.63989
3.36,0.488369,1.64092
3.364,0.488093,1.64194
3.368,0.487818,1.64297
3.372,0.487543,1.644
3.376,0.487269,1.64502
3.38,0.486996,1.64605
3.384,0.486724,1.64707
3.388,0.486452,1.6481
3.392,0.48618,1.64912
3.396,0.485909,1.65015
3.4,0.485639,1.65117
3.404,0.48537,1.6522
3.408,0.485101,1.65322
3.412,0.484833,1.65425
3.416,0.484565,1.65527
3.42,0.484298,1.6563
3.424,0.484032,1.65732
3.428,0.483766,1.65835
3.432,0.483501,1.65937
3.436,0.483236,1.6604
3.44,0.482972,1.66142
3.444,0.482709,1.66245
3.448,0.482446,1.66347
3.452,0.482183,1.6645
3.456,0.481922,1.66552
3.46,0.481661,1.66655
3.464,0.4814,1.66757
3.468,0.48114,1.6686
3.472,0.480881,1.66962
3.476,0.480622,1.67064
3.48,0.480364,1.67167
3.484,0.480107,1.67269
3.488,0.47985,1.67372
3.492,0.479593,1.67474
3.496,0.479337,1.67576
3.5,0.479082,1.67679
3.504,0.478827,1.67781
3.508,0.478573,1.67884
3.512,0.47832,1.67986
3.516,0.478067,1.68088
3.52,0.477814,1.68191
3.524,0.477562,1.68293
3.528,0.477311,1.68395
3.532,0.47706,1.68498
3.536,0.47681,1.686
3.54,0.47656,1.68702
3.544,0.476311,1.68805
3.548,0.476063,1.68907
3.552,0.475814,1.69009
3.556,0.475567,1.69112
3.56,0.47532,1.69214
3.564,0.475074,1.69316
3.568,0.474828,1.69419
3.572,0.474582,1.69521
3.576,0.474338,1.69623
3.58,0.474093,1.69725
3.584,0.473849,1.69828
3.588,0.473606,1.6993
3.592,0.473364,1.70032
3.596,0.473121,1.70134
3.6,0.47288,1.70237
3.604,0.472639,1.70339
3.608,0.472398,1.70441
3.612,0.472158,1.70543
3.616,0.471918,1.70646
3.62,0.471679,1.70748
3.624,0.471441,1.7085
3.628,0.471203,1.70952
3.632,0.470965,1.71055
3.636,0.470728,1.71157
3.64,0.470492,1.71259
3.644,0.470256,1.71361
3.648,0.47002,1.71463
3.652,0.469785,1.71566
3.656,0.469551,1.71668
3.66,0.469317,1.7177
3.664,0.469083,1.71872
3.668,0.46885,1.71974
3.672,0.468618,1.72076
3.676,0.468386,1.72179
3.68,0.468154,1.72281
3.684,0.467923,1.72383
3.688,0.467693,1.72485
3.692,0.467463,1.72587
3.696,0.467233,1.72689
3.7,0.467004,1.72792
3.704,0.466776,1.72894
3.708,0.466547,1.72996
3.712,0.46632,1.73098
3.716,0.466093,1.732
3.72,0.465866,1.73302
3.724,0.46564,1.73404
3.728,0.465414,1.73506
3.732,0.465189,1.73608
3.736,0.464964,1.73711
3.74,0.46474,1.73813
3.744,0.464516,1.73915
3.748,0.464293,1.74017
3.752,0.46407,1.74119
3.756,0.463847,1.74221
3.76,0.463625,1.74323
3.764,0.463404,1.74425
3.768,0.463183,1.74527
3.772,0.462962,1.74629
3.776,0.462742,1.74731
3.78,0.462522,1.74833
3.784,0.462303,1.74935
3.788,0.462084,1.75037
3.792,0.461866,1.75139
3.796,0.461648,1.75241
3.8,0.46143,1.75344
3.804,0.461213,1.75446
3.808,0.460997,1.75548
3.812,0.460781,1.7565
3.816,0.460565,1.75752
3.82,0.46035,1.75854
3.824,0.460135,1.75956
3.828,0.45992,1.76058
3.832,0.459707,1.7616
3.836,0.459493,1.76262
3.84,0.45928,1.76364
3.844,0.459067,1.76466
3.848,0.458855,1.76567
3.852,0.458643,1.76669
3.856,0.458432,1.76771
3.86,0.458221,1.76873
3.864,0.458011,1.76975
3.868,0.457801,1.77077
3.872,0.457591,1.77179
3.876,0.457382,1.77281
3.88,0.457173,1.77383
3.884,0.456965,1.77485
3.888,0.456757,1.77587
3.892,0.456549,1.77689
3.896,0.456342,1.77791
3.9,0.456135,1.77893
3.904,0.455929,1.77995
3.908,0.455723,1.78097
3.912,0.455518,1.78199
3.916,0.455313,1.783
3.92,0.455108,1.78402
3.924,0.454904,1.78504
3.928,0.4547,1.78606
3.932,0.454497,1.78708
3.936,0.454294,1.7881
3.94,0.454091,1.78912
3.944,0.453889,1.79014
3.948,0.453687,1.79116
3.952,0.453485,1.79217
3.956,0.453284,1.79319
3.96,0.453084,1.79421
3.964,0.452884,1.79523
3.968,0.452684,1.79625
3.972,0.452484,1.79727
3.976,0.452285,1.79829
3.98,0.452087,1.7993
3.984,0.451888,1.80032
3.988,0.45169,1.80134
3.992,0.451493,1.80236
3.996,0.451296,1.80338
4,0.451099,1.8044
